Logistic Regression and Residual Analysis
…
Residuals

( g_bayes_resid = residual_draws_fix(
  g_bayes, newdata = aids
) )

# A tibble: 52,000 × 7
    year cases  .row .chain .iteration .draw .residual
   <int> <int> <int>  <int>      <int> <int>     <dbl>
 1  1981    12     1      1          1     1     -11.4
 2  1981    12     1      1          2     2     -14.0
 3  1981    12     1      1          3     3     -13.1
 4  1981    12     1      1          4     4     -12.2
 5  1981    12     1      1          5     5     -12.0
 6  1981    12     1      1          6     6     -19.8
 7  1981    12     1      1          7     7     -18.7
 8  1981    12     1      1          8     8     -18.7
 9  1981    12     1      1          9     9     -20.3
10  1981    12     1      1         10    10     -19.5
# … with 51,990 more rows
…
coarse gravel

cobble

boulder

bedrock

Data

load("data/anguilla.Rdata")
( anguilla = as_tibble(anguilla) )

# A tibble: 824 × 10
   presence SegSumT DSDist DSMaxSl…¹ USRai…² USSlope USNat…³ DSDam Method LocSed
      <int>   <dbl>  <dbl>     <dbl>   <dbl>   <dbl>   <dbl> <int> <fct>   <dbl>
 1        0    16    50.2       0.57   2.47      9.8    0.81     0 elect…    4.8
 2        1    18.7 133.        1.15   1.15      8.3    0.34     0 elect…    2  
 3        0    18.3 107.        0.57   0.847     0.4    0        0 spo       1  
 4        0    16.7 167.        1.72   0.21      0.4    0.22     1 elect…    4  
 5        1    17.2   3.95      1.15   1.98     21.9    0.96     0 elect…    4.7
 6        0    15.1  11.2       1.72   3.3      25.7    1        0 elect…    4.5
 7        0    12.7  42.4       2.86   0.43      9.6    0.09     0 elect…    4.3
 8        1    18.2  94.4       3.43   0.847    20.5    0.92     0 elect…    3.6
 9        0    14.9  45.7       2.29   2.25      3.9    0.38     0 elect…    3.7
10        1    18.3  91.9       1.72   0.861     6.7    0.58     1 elect…    1  
# … with 814 more rows, and abbreviated variable names ¹​DSMaxSlope,
#   ²​USRainDays, ³​USNative
…
(Dispersion parameter for binomial family taken to be 1)

    Null deviance: 627.81  on 617  degrees of freedom
Residual deviance: 501.93  on 616  degrees of freedom
AIC: 505.93

Number of Fisher Scoring iterations: 5

Fit

( g_pred = broom::augment(g, type.predict = "response") )

# A tibble: 618 × 8
   presence SegSumT .fitted .resid .std.resid    .hat .sigma   .cooksd
      <int>   <dbl>   <dbl>  <dbl>      <dbl>   <dbl>  <dbl>     <dbl>
 1        0    16.4  0.131  -0.529     -0.530 0.00260  0.903 0.000197 
 2        1    17.1  0.209   1.77       1.77  0.00232  0.901 0.00443  
 3        0    14    0.0216 -0.209     -0.209 0.00231  0.903 0.0000256
 4        0    18.2  0.389  -0.992     -0.994 0.00364  0.903 0.00117  
 5        0    15.6  0.0735 -0.391     -0.391 0.00286  0.903 0.000114 
 6        0    18.3  0.408  -1.02      -1.03  0.00395  0.902 0.00137  
 7        0    18.5  0.447  -1.09      -1.09  0.00466  0.902 0.00190  
 8        0    16.2  0.114  -0.491     -0.492 0.00270  0.903 0.000174 
 9        0    18    0.351  -0.930     -0.932 0.00313  0.903 0.000853 
10        1    17.3  0.236   1.70       1.70  0.00233  0.901 0.00379  
# … with 608 more rows
…
