Diagnostics and Model Evaluation
…
tidybayes - gather_draws (long)

b_post = b |>
  tidybayes::gather_draws(b_Intercept, b_x, sigma)

b_post
## # A tibble: 12,000 × 5
## # Groups:   .variable [3]
##    .chain .iteration .draw .variable   .value
##     <int>      <int> <int> <chr>        <dbl>
##  1      1          1     1 b_Intercept -0.961
##  2      1          2     2 b_Intercept -1.24 
##  3      1          3     3 b_Intercept -1.29 
##  4      1          4     4 b_Intercept -0.763
##  5      1          5     5 b_Intercept -0.980
##  6      1          6     6 b_Intercept -1.13 
##  7      1          7     7 b_Intercept -0.810
##  8      1          8     8 b_Intercept -1.33 
##  9      1          9     9 b_Intercept -1.22 
## 10      1         10    10 b_Intercept -1.11 
## # … with 11,990 more rows

tidybayes - spread_draws (wide)

b_post_wide = b |>
  tidybayes::spread_draws(b_Intercept, b_x, sigma)

b_post_wide
## # A tibble: 4,000 × 6
##    .chain .iteration .draw b_Intercept    b_x sigma
##     <int>      <int> <int>       <dbl>  <dbl> <dbl>
##  1      1          1     1      -0.961 0.0671  1.33
##  2      1          2     2      -1.24  0.0726  1.75
##  3      1          3     3      -1.29  0.0736  1.79
##  4      1          4     4      -0.763 0.0639  1.35
##  5      1          5     5      -0.980 0.0697  1.53
##  6      1          6     6      -1.13  0.0692  1.53
##  7      1          7     7      -0.810 0.0637  1.52
##  8      1          8     8      -1.33  0.0726  1.47
##  9      1          9     9      -1.22  0.0728  1.65
## 10      1         10    10      -1.11  0.0667  1.52
## # … with 3,990 more rows
…
Credible Intervals

( b_ci = b_post |>
    group_by(.chain, .variable) |>
    tidybayes::mean_hdi(.value, .width=c(0.8, 0.95))
)
## # A tibble: 24 × 8
##    .chain .variable    .value  .lower  .upper .width .point .interval
##     <int> <chr>         <dbl>   <dbl>   <dbl>  <dbl> <chr>  <chr>    
##  1      1 b_Intercept -1.03   -1.40   -0.624     0.8 mean   hdi      
##  2      1 b_x          0.0685  0.0624  0.0761    0.8 mean   hdi      
##  3      1 sigma        1.55    1.40    1.69      0.8 mean   hdi      
##  4      2 b_Intercept -1.03   -1.41   -0.621     0.8 mean   hdi      
##  5      2 b_x          0.0684  0.0620  0.0753    0.8 mean   hdi      
##  6      2 sigma        1.55    1.43    1.69      0.8 mean   hdi      
##  7      3 b_Intercept -1.02   -1.40   -0.604     0.8 mean   hdi      
##  8      3 b_x          0.0684  0.0615  0.0749    0.8 mean   hdi      
##  9      3 sigma        1.55    1.42    1.69      0.8 mean   hdi      
## 10      4 b_Intercept -1.04   -1.40   -0.637     0.8 mean   hdi      
## # … with 14 more rows
…
Predictions

lm predictions

(l_pred = broom::augment(l, interval="confidence"))
## # A tibble: 100 × 10
##         y     x .fitted .lower   .upper .resid   .hat .sigma  .cooksd .std.resid
##     <dbl> <int>   <dbl>  <dbl>    <dbl>  <dbl>  <dbl>  <dbl>    <dbl>      <dbl>
##  1 -3.24      1  -0.962 -1.57  -0.355   -2.28  0.0394   1.53 0.0467       -1.51 
##  2 -2.00      2  -0.893 -1.49  -0.296   -1.11  0.0382   1.54 0.0107       -0.734
##  3 -2.59      3  -0.825 -1.41  -0.237   -1.77  0.0371   1.54 0.0264       -1.17 
##  4 -3.07      4  -0.757 -1.34  -0.177   -2.31  0.0359   1.53 0.0436       -1.53 
##  5 -1.88      5  -0.688 -1.26  -0.118   -1.20  0.0348   1.54 0.0113       -0.791
##  6 -0.807     6  -0.620 -1.18  -0.0583  -0.187 0.0338   1.55 0.000266     -0.123
##  7 -2.09      7  -0.551 -1.10   0.00127 -1.54  0.0327   1.54 0.0175       -1.02 
##  8 -0.227     8  -0.483 -1.03   0.0609   0.256 0.0317   1.55 0.000466      0.169
##  9  0.333     9  -0.415 -0.950  0.121    0.747 0.0307   1.55 0.00384       0.493
## 10  1.98     10  -0.346 -0.873  0.180    2.32  0.0297   1.53 0.0358        1.53 
## # … with 90 more rows
…
Why are the intervals different?

Raw predictions

dim( brms::posterior_predict(b) )
## [1] 4000  100
dim( brms::posterior_epred(b) )
## [1] 4000  100

Tidy raw predictions

( b_post_pred = tidybayes::predicted_draws(
    b, newdata=d
) )
## # A tibble: 400,000 × 7
## # Groups:   x, y, .row [100]
##        x     y  .row .chain .iteration .draw .prediction
##    <int> <dbl> <int>  <int>      <int> <int>       <dbl>
##  1     1 -3.24     1     NA         NA     1       3.24 
##  2     1 -3.24     1     NA         NA     2      -3.86 
##  3     1 -3.24     1     NA         NA     3      -1.36 
##  4     1 -3.24     1     NA         NA     4       0.465
##  5     1 -3.24     1     NA         NA     5      -2.54 
##  6     1 -3.24     1     NA         NA     6      -6.98 
##  7     1 -3.24     1     NA         NA     7      -2.07 
##  8     1 -3.24     1     NA         NA     8      -2.97 
##  9     1 -3.24     1     NA         NA     9      -0.408
## 10     1 -3.24     1     NA         NA    10      -0.465
## # … with 399,990 more rows

( b_post_epred = tidybayes::epred_draws(
    b, newdata=d
) )
## # A tibble: 400,000 × 7
## # Groups:   x, y, .row [100]
##        x     y  .row .chain .iteration .draw .epred
##    <int> <dbl> <int>  <int>      <int> <int>  <dbl>
##  1     1 -3.24     1     NA         NA     1 -0.894
##  2     1 -3.24     1     NA         NA     2 -1.17 
##  3     1 -3.24     1     NA         NA     3 -1.21 
##  4     1 -3.24     1     NA         NA     4 -0.699
##  5     1 -3.24     1     NA         NA     5 -0.910
##  6     1 -3.24     1     NA         NA     6 -1.06 
##  7     1 -3.24     1     NA         NA     7 -0.746
##  8     1 -3.24     1     NA         NA     8 -1.26 
##  9     1 -3.24     1     NA         NA     9 -1.15 
## 10     1 -3.24     1     NA         NA    10 -1.05 
## # … with 399,990 more rows
…
Some data prep

( b_post_full = b |>
    tidybayes::spread_draws(b_Intercept, b_x, sigma) |>
    tidyr::expand_grid(d) |>
    mutate(
      y_hat = b_Intercept + b_x * x,
      resid = y - y_hat
    )
)
## # A tibble: 400,000 × 10
##    .chain .iteration .draw b_Intercept    b_x sigma     x      y  y_hat  resid
##     <int>      <int> <int>       <dbl>  <dbl> <dbl> <int>  <dbl>  <dbl>  <dbl>
##  1      1          1     1      -0.961 0.0671  1.33     1 -3.24  -0.894 -2.35 
##  2      1          1     1      -0.961 0.0671  1.33     2 -2.00  -0.826 -1.18 
##  3      1          1     1      -0.961 0.0671  1.33     3 -2.59  -0.759 -1.84 
##  4      1          1     1      -0.961 0.0671  1.33     4 -3.07  -0.692 -2.38 
##  5      1          1     1      -0.961 0.0671  1.33     5 -1.88  -0.625 -1.26 
##  6      1          1     1      -0.961 0.0671  1.33     6 -0.807 -0.558 -0.248
##  7      1          1     1      -0.961 0.0671  1.33     7 -2.09  -0.491 -1.60 
##  8      1          1     1      -0.961 0.0671  1.33     8 -0.227 -0.424  0.197
##  9      1          1     1      -0.961 0.0671  1.33     9  0.333 -0.357  0.690
## 10      1          1     1      -0.961 0.0671  1.33    10  1.98  -0.290  2.27 
## # … with 399,990 more rows

Bayesian \(R^2\)

When we compute any statistic for our model we want to do so at each iteration so that we can obtain the posterior distribution of that particular statistic (e.g. the posterior distribution of \(R^2\) in this case).

( b_R2 = b_post_full %>%
    group_by(.iteration) %>%
    summarize(
      R2_classic = var(y_hat) / var(y),
      R2_bayes   = var(y_hat) / (var(y_hat) + var(resid))
    )
)
## # A tibble: 1,000 × 3
##    .iteration R2_classic R2_bayes
##         <int>      <dbl>    <dbl>
##  1          1      0.676    0.642
##  2          2      0.757    0.663
##  3          3      0.593    0.610
##  4          4      0.667    0.637
##  5          5      0.630    0.625
##  6          6      0.627    0.624
##  7          7      0.557    0.593
##  8          8      0.640    0.625
##  9          9      0.730    0.657
## 10         10      0.558    0.594
## # … with 990 more rows
…
Sanity check

( l_pred = broom::augment(l) )
## # A tibble: 100 × 8
##         y     x .fitted .resid   .hat .sigma  .cooksd .std.resid
##     <dbl> <int>   <dbl>  <dbl>  <dbl>  <dbl>    <dbl>      <dbl>
##  1 -3.24      1  -0.962 -2.28  0.0394   1.53 0.0467       -1.51 
##  2 -2.00      2  -0.893 -1.11  0.0382   1.54 0.0107       -0.734
##  3 -2.59      3  -0.825 -1.77  0.0371   1.54 0.0264       -1.17 
##  4 -3.07      4  -0.757 -2.31  0.0359   1.53 0.0436       -1.53 
##  5 -1.88      5  -0.688 -1.20  0.0348   1.54 0.0113       -0.791
##  6 -0.807     6  -0.620 -0.187 0.0338   1.55 0.000266     -0.123
##  7 -2.09      7  -0.551 -1.54  0.0327   1.54 0.0175       -1.02 
##  8 -0.227     8  -0.483  0.256 0.0317   1.55 0.000466      0.169
##  9  0.333     9  -0.415  0.747 0.0307   1.55 0.00384       0.493
## 10  1.98     10  -0.346  2.32  0.0297   1.53 0.0358        1.53 
## # … with 90 more rows
…
broom::augment(l) |>
  yardstick::rmse(y, .fitted)
## # A tibble: 1 × 3
##   .metric .estimator .estimate
##   <chr>   <chr>          <dbl>
## 1 rmse    standard        1.52

( b_rmse = b_post_full %>%
    group_by(.chain, .iteration) %>%
    summarize(
      rmse = sqrt( sum( (y - y_hat)^2 ) / n())
    )
)
## # A tibble: 4,000 × 3
## # Groups:   .chain [4]
##    .chain .iteration  rmse
##     <int>      <int> <dbl>
##  1      1          1  1.53
##  2      1          2  1.53
##  3      1          3  1.53
##  4      1          4  1.53
##  5      1          5  1.53
##  6      1          6  1.53
##  7      1          7  1.53
##  8      1          8  1.53
##  9      1          9  1.53
## 10      1         10  1.53
## # … with 3,990 more rows
…
CRPS - \(\hat{y}\)

( b_crps = b_post_full |>
    group_by(.chain, x) |>
    summarise(
      crps = calc_crps(y_hat, y)
    )
)
## # A tibble: 400 × 3
## # Groups:   .chain [4]
##    .chain     x  crps
##     <int> <int> <dbl>
##  1      1     1 2.10 
##  2      1     2 0.934
##  3      1     3 1.60 
##  4      1     4 2.14 
##  5      1     5 1.03 
##  6      1     6 0.113
##  7      1     7 1.38 
##  8      1     8 0.156
##  9      1     9 0.599
## 10      1    10 2.18 
## # … with 390 more rows
…
Empirical Coverage - \(\hat{y}\)

( b_cover = b_post_full %>% 
    group_by(x, y) %>% 
    tidybayes::mean_hdi(
      y_hat, .prob = c(0.5,0.9,0.95)
    ) 
)
## # A tibble: 300 × 8
##        x      y  y_hat .lower .upper .width .point .interval
##    <int>  <dbl>  <dbl>  <dbl>  <dbl>  <dbl> <chr>  <chr>    
##  1     1 -3.24  -0.963 -1.14  -0.735    0.5 mean   hdi      
##  2     2 -2.00  -0.894 -1.07  -0.669    0.5 mean   hdi      
##  3     3 -2.59  -0.826 -1.02  -0.630    0.5 mean   hdi      
##  4     4 -3.07  -0.758 -0.947 -0.562    0.5 mean   hdi      
##  5     5 -1.88  -0.689 -0.847 -0.467    0.5 mean   hdi      
##  6     6 -0.807 -0.621 -0.771 -0.398    0.5 mean   hdi      
##  7     7 -2.09  -0.552 -0.745 -0.378    0.5 mean   hdi      
##  8     8 -0.227 -0.484 -0.667 -0.306    0.5 mean   hdi      
##  9     9  0.333 -0.415 -0.594 -0.240    0.5 mean   hdi      
## 10    10  1.98  -0.347 -0.521 -0.174    0.5 mean   hdi      
## # … with 290 more rows
…
