CCFs, Differencing, & AR(1) models
…
  CCFs, Differencing, & AR(1) models

  Lecture 08

Dr. Colin Rundel 

Lagged Predictors and CCFs

Southern Oscillation Index & Recruitment

The Southern Oscillation Index (SOI) is an indicator of the development and intensity of El Niño (negative SOI) or La Niña (positive SOI) events in the Pacific Ocean. These data also included the estimate of “recruitment”, which indicate fish population sizes in the southern hemisphere.

# A tibble: 453 × 3
    date    soi recruitment
   <dbl>  <dbl>       <dbl>
 1 1950   0.377        68.6
 2 1950.  0.246        68.6
 3 1950.  0.311        68.6
 4 1950.  0.104        68.6
 5 1950. -0.016        68.6
 6 1950.  0.235        68.6
 7 1950.  0.137        59.2
 8 1951.  0.191        48.7
 9 1951. -0.016        47.5
10 1951.  0.29         50.9
# … with 443 more rows
…
