Logistic Regression (cont.)
…
Combining model predictions

( model_comb  = bind_rows(
    g_std |> mutate(model = "SegSumT"),
    f_std |> mutate(model = "Full")
  ) |>
    group_by(model)
)

# A tibble: 1,236 × 17
# Groups:   model [2]
   presence SegSumT .fitted  .resid .std.r…¹    .hat .sigma .cooksd model DSDist
      <int>   <dbl>   <dbl>   <dbl>    <dbl>   <dbl>  <dbl>   <dbl> <chr>  <dbl>
 1        0    16.4  0.131  -0.131    -0.530 0.00260  0.903 1.97e-4 SegS…     NA
 2        1    17.1  0.209   0.791     1.77  0.00232  0.901 4.43e-3 SegS…     NA
 3        0    14    0.0216 -0.0216   -0.209 0.00231  0.903 2.56e-5 SegS…     NA
 4        0    18.2  0.389  -0.389    -0.994 0.00364  0.903 1.17e-3 SegS…     NA
 5        0    15.6  0.0735 -0.0735   -0.391 0.00286  0.903 1.14e-4 SegS…     NA
 6        0    18.3  0.408  -0.408    -1.03  0.00395  0.902 1.37e-3 SegS…     NA
 7        0    18.5  0.447  -0.447    -1.09  0.00466  0.902 1.90e-3 SegS…     NA
 8        0    16.2  0.114  -0.114    -0.492 0.00270  0.903 1.74e-4 SegS…     NA
 9        0    18    0.351  -0.351    -0.932 0.00313  0.903 8.53e-4 SegS…     NA
10        1    17.3  0.236   0.764     1.70  0.00233  0.901 3.79e-3 SegS…     NA
# … with 1,226 more rows, 7 more variables: DSMaxSlope <dbl>, USRainDays <dbl>,
#   USSlope <dbl>, USNative <dbl>, DSDam <int>, Method <fct>, LocSed <dbl>, and
#   abbreviated variable name ¹​.std.resid
Receiver operating characteristic (ROC)

\[
\begin{aligned}
\text{Sensitivity} = \frac{TP}{TP+FN}
\qquad\qquad
\text{Specificity} = \frac{TN}{TN+FP}
\end{aligned}
\]

( model_roc = model_comb |>
    yardstick::roc_curve(factor(presence, levels = c(1,0)), .fitted)
)

# A tibble: 696 × 4
# Groups:   model [2]
   model  .threshold specificity sensitivity
   <chr>       <dbl>       <dbl>       <dbl>
 1 Full  -Inf            0                 1
 2 Full     0.000132     0                 1
 3 Full     0.000425     0.00204           1
 4 Full     0.000453     0.00407           1
 5 Full     0.000755     0.00611           1
 6 Full     0.000761     0.00815           1
 7 Full     0.000792     0.0102            1
 8 Full     0.00108      0.0122            1
 9 Full     0.00126      0.0143            1
10 Full     0.00146      0.0163            1
# … with 686 more rows
…
Precision / Recall

\[
\begin{aligned}
\text{Precision} = \frac{TP}{TP+FP}
\qquad\qquad
\text{Recall} = \frac{TP}{TP+FN}
\end{aligned}
\]

( model_pr = model_comb |>
    yardstick::pr_curve(factor(presence, levels = c(1,0)), .fitted)
)

# A tibble: 694 × 4
# Groups:   model [2]
   model .threshold  recall precision
   <chr>      <dbl>   <dbl>     <dbl>
 1 Full     Inf     0           1    
 2 Full       0.873 0           0    
 3 Full       0.866 0.00787     0.5  
 4 Full       0.859 0.0157      0.667
 5 Full       0.845 0.0236      0.75 
 6 Full       0.842 0.0236      0.6  
 7 Full       0.830 0.0315      0.667
 8 Full       0.829 0.0394      0.714
 9 Full       0.823 0.0394      0.625
10 Full       0.816 0.0394      0.556
# … with 684 more rows
…
(model_comb = bind_rows(
    broom::augment(g, newdata=anguilla_train,   type.predict="response") |> 
      mutate(model = "SegSumT (train)"),
    broom::augment(g, newdata=anguilla_test,    type.predict="response") |> 
      mutate(model = "SegSumT (test)"),
    broom::augment(f, newdata=anguilla_train,   type.predict="response") |> 
      mutate(model = "Full (train)"),
    broom::augment(f, newdata=anguilla_test,    type.predict="response") |> 
      mutate(model = "Full (test)"),
  ) |>
    group_by(model)
)

# A tibble: 1,648 × 12
# Groups:   model [4]
   presence SegSumT DSDist DSMaxSl…¹ USRai…² USSlope USNat…³ DSDam Method LocSed
      <int>   <dbl>  <dbl>     <dbl>   <dbl>   <dbl>   <dbl> <int> <fct>   <dbl>
 1        0    16.4  97.8       6.28   1.51     24.6    0.81     0 elect…    4.5
 2        1    17.1  13.9       0.57   1.98      3.3    0.13     0 net       1.8
 3        0    14     1.84      0.57   0.29     10.1    0.37     0 elect…    4.7
 4        0    18.2 121.        0.57   0.894     1.1    0.02     0 trap      2  
 5        0    15.6  55.1       5.14   3.3      27.6    0.98     0 elect…    5.4
 6        0    18.3 107.        0.57   0.85      1.1    0        0 trap      2.4
 7        0    18.5  81.5       2.29   1.26     22.8    0.94     0 elect…    5.2
 8        0    16.2 272.        3.43   0.56     27.2    0.95     1 elect…    3.4
 9        0    18    24.4       0.17   0.601    19.5    0.16     0 elect…    1.2
10        1    17.3  11.9       0.57   2.14      3.9    0.04     0 elect…    4.3
# … with 1,638 more rows, 2 more variables: .fitted <dbl>, model <chr>, and
#   abbreviated variable names ¹​DSMaxSlope, ²​USRainDays, ³​USNative
…
Gathering parameters

( b_param = b |>
    tidybayes::gather_draws( `b_.*`, regex = TRUE)
)

# A tibble: 24,000 × 5
# Groups:   .variable [6]
   .chain .iteration .draw .variable   .value
    <int>      <int> <int> <chr>        <dbl>
 1      1          1     1 b_Intercept  -17.3
 2      1          2     2 b_Intercept  -15.6
 3      1          3     3 b_Intercept  -16.9
 4      1          4     4 b_Intercept  -17.0
 5      1          5     5 b_Intercept  -14.4
 6      1          6     6 b_Intercept  -18.0
 7      1          7     7 b_Intercept  -11.1
 8      1          8     8 b_Intercept  -15.2
 9      1          9     9 b_Intercept  -16.3
10      1         10    10 b_Intercept  -14.7
# … with 23,990 more rows
…
Posterior predictive

( b_pred = b |>
    predicted_draws_fix(newdata = anguilla_train) |>
    select(presence, .row:.prediction) |>
    mutate( # Fix for yardstick
      presence = factor(presence, levels=c(1,0)),
      .prediction = factor(.prediction, levels=c(1,0))
    )
)

# A tibble: 2,472,000 × 6
   presence  .row .chain .iteration .draw .prediction
   <fct>    <int>  <int>      <int> <int> <fct>      
 1 0            1      1          1     1 0          
 2 0            1      1          2     2 0          
 3 0            1      1          3     3 1          
 4 0            1      1          4     4 0          
 5 0            1      1          5     5 0          
 6 0            1      1          6     6 0          
 7 0            1      1          7     7 0          
 8 0            1      1          8     8 0          
 9 0            1      1          9     9 0          
10 0            1      1         10    10 0          
# … with 2,471,990 more rows
…
Expected posterior predictive

( b_epred = b |>
    epred_draws_fix(newdata = anguilla_train) |>
    select(presence, .row:.epred) |>
    mutate( # Fix for yardstick
      presence = factor(presence, levels=c(1,0))
    )
)

# A tibble: 2,472,000 × 6
   presence  .row .chain .iteration .draw .epred
   <fct>    <int>  <int>      <int> <int>  <dbl>
 1 0            1      1          1     1  0.119
 2 0            1      1          2     2  0.143
 3 0            1      1          3     3  0.126
 4 0            1      1          4     4  0.127
 5 0            1      1          5     5  0.142
 6 0            1      1          6     6  0.126
 7 0            1      1          7     7  0.175
 8 0            1      1          8     8  0.160
 9 0            1      1          9     9  0.128
10 0            1      1         10    10  0.151
# … with 2,471,990 more rows
…
