Discrete Time Series
…
Example - Australian Wine Sales

Australian total wine sales by wine makers in bottles <= 1 litre. Jan 1980 – Aug 1994.

aus_wine = readRDS("data/aus_wine.rds")
aus_wine

# A tibble: 176 × 2
    date sales
   <dbl> <dbl>
 1 1980  15136
 2 1980. 16733
 3 1980. 20016
 4 1980. 17708
 5 1980. 18019
 6 1980. 19227
 7 1980. 22893
 8 1981. 23739
 9 1981. 21133
10 1981. 22591
# … with 166 more rows
…
