tidyverts & prophet
…
tsibble

A tsibble is a tibble with additional infrastructure for encoding temporal data - specifcially a tsibble is a tidy data frame with an index and key where

the index is the variable that descibes the inherent ordering of the data (from past to present)

and the key is one or more variables that define the unit of observation over time

each observation should be uniquely identified by the index and key

global_economy

tsibbledata::global_economy

# A tsibble: 15,150 x 9 [1Y]
# Key:       Country [263]
   Country Code   Year    GDP Growth   CPI Imports
   <fct>   <fct> <dbl>  <dbl>  <dbl> <dbl>   <dbl>
 1 Afghan… AFG    1960 5.38e8     NA    NA    7.02
 2 Afghan… AFG    1961 5.49e8     NA    NA    8.10
 3 Afghan… AFG    1962 5.47e8     NA    NA    9.35
 4 Afghan… AFG    1963 7.51e8     NA    NA   16.9 
 5 Afghan… AFG    1964 8.00e8     NA    NA   18.1 
 6 Afghan… AFG    1965 1.01e9     NA    NA   21.4 
 7 Afghan… AFG    1966 1.40e9     NA    NA   18.6 
 8 Afghan… AFG    1967 1.67e9     NA    NA   14.2 
 9 Afghan… AFG    1968 1.37e9     NA    NA   15.2 
10 Afghan… AFG    1969 1.41e9     NA    NA   15.0 
# … with 15,140 more rows, and 2 more variables:
#   Exports <dbl>, Population <dbl>

vic_elec

tsibbledata::vic_elec

# A tsibble: 52,608 x 5 [30m]
#   <Australia/Melbourne>
   Time                Demand Tempera…¹ Date      
   <dttm>               <dbl>     <dbl> <date>    
 1 2012-01-01 00:00:00  4383.      21.4 2012-01-01
 2 2012-01-01 00:30:00  4263.      21.0 2012-01-01
 3 2012-01-01 01:00:00  4049.      20.7 2012-01-01
 4 2012-01-01 01:30:00  3878.      20.6 2012-01-01
 5 2012-01-01 02:00:00  4036.      20.4 2012-01-01
 6 2012-01-01 02:30:00  3866.      20.2 2012-01-01
 7 2012-01-01 03:00:00  3694.      20.1 2012-01-01
 8 2012-01-01 03:30:00  3562.      19.6 2012-01-01
 9 2012-01-01 04:00:00  3433.      19.1 2012-01-01
10 2012-01-01 04:30:00  3359.      19.0 2012-01-01
# … with 52,598 more rows, 1 more variable:
#   Holiday <lgl>, and abbreviated variable name
#   ¹​Temperature

aus_retail

tsibbledata::aus_retail

# A tsibble: 64,532 x 5 [1M]
# Key:       State, Industry [152]
   State          Indus…¹ Serie…²    Month Turno…³
   <chr>          <chr>   <chr>      <mth>   <dbl>
 1 Australian Ca… Cafes,… A33498… 1982 Apr     4.4
 2 Australian Ca… Cafes,… A33498… 1982 May     3.4
 3 Australian Ca… Cafes,… A33498… 1982 Jun     3.6
 4 Australian Ca… Cafes,… A33498… 1982 Jul     4  
 5 Australian Ca… Cafes,… A33498… 1982 Aug     3.6
 6 Australian Ca… Cafes,… A33498… 1982 Sep     4.2
 7 Australian Ca… Cafes,… A33498… 1982 Oct     4.8
 8 Australian Ca… Cafes,… A33498… 1982 Nov     5.4
 9 Australian Ca… Cafes,… A33498… 1982 Dec     6.9
10 Australian Ca… Cafes,… A33498… 1983 Jan     3.8
# … with 64,522 more rows, and abbreviated
#   variable names ¹​Industry, ²​`Series ID`,
#   ³​Turnover

as_tsibble()

Existing ts objects can be converted to a tsibble easily,

tsibble::as_tsibble(co2)

# A tsibble: 468 x 2 [1M]
      index value
      <mth> <dbl>
 1 1959 Jan  315.
 2 1959 Feb  316.
 3 1959 Mar  316.
 4 1959 Apr  318.
 5 1959 May  318.
 6 1959 Jun  318 
 7 1959 Jul  316.
 8 1959 Aug  315.
 9 1959 Sep  314.
10 1959 Oct  313.
# … with 458 more rows
…
Modeling with fable

elec_sales

( elec_sales = as_tsibble(
  elec_sales
) )

# A tsibble: 191 x 2 [1M]
      index value
      <mth> <dbl>
 1 1996 Jan  85.0
 2 1996 Feb  81.9
 3 1996 Mar  78.4
 4 1996 Apr  79.0
 5 1996 May  79.7
 6 1996 Jun  76.1
 7 1996 Jul  81.4
 8 1996 Aug  79.3
 9 1996 Sep  78.1
10 1996 Oct  80.3
# … with 181 more rows
…
. . .

m %>% accuracy()

# A tibble: 1 × 10
  .model                      .type        ME  RMSE   MAE     MPE  MAPE  MASE RMSSE    ACF1
  <chr>                       <chr>     <dbl> <dbl> <dbl>   <dbl> <dbl> <dbl> <dbl>   <dbl>
1 ARIMA(value ~ pdq(3, 1, 0)) Training 0.0117  3.11  2.43 -0.0435  2.56 0.296 0.281 -0.0346

. . .

m %>% augment()

# A tsibble: 191 x 6 [1M]
# Key:       .model [1]
   .model                         index value .fitted  .resid  .innov
   <chr>                          <mth> <dbl>   <dbl>   <dbl>   <dbl>
 1 ARIMA(value ~ pdq(3, 1, 0)) 1996 Jan  85.0    84.9  0.0850  0.0850
 2 ARIMA(value ~ pdq(3, 1, 0)) 1996 Feb  81.9    84.6 -2.68   -2.68  
 3 ARIMA(value ~ pdq(3, 1, 0)) 1996 Mar  78.4    82.7 -4.28   -4.28  
 4 ARIMA(value ~ pdq(3, 1, 0)) 1996 Apr  79.0    80.3 -1.25   -1.25  
 5 ARIMA(value ~ pdq(3, 1, 0)) 1996 May  79.7    78.0  1.76    1.76  
 6 ARIMA(value ~ pdq(3, 1, 0)) 1996 Jun  76.1    78.4 -2.24   -2.24  
 7 ARIMA(value ~ pdq(3, 1, 0)) 1996 Jul  81.4    77.5  3.87    3.87  
 8 ARIMA(value ~ pdq(3, 1, 0)) 1996 Aug  79.3    79.9 -0.599  -0.599 
 9 ARIMA(value ~ pdq(3, 1, 0)) 1996 Sep  78.1    78.7 -0.588  -0.588 
10 ARIMA(value ~ pdq(3, 1, 0)) 1996 Oct  80.3    80.3 -0.0448 -0.0448
# … with 181 more rows
…
Forecasting

m %>%
  forecast()

# A fable: 24 x 4 [1M]
# Key:     .model [1]
   .model                         index      value .mean
   <chr>                          <mth>     <dist> <dbl>
 1 ARIMA(value ~ pdq(3, 1, 0)) 2011 Dec N(86, 9.9)  86.2
 2 ARIMA(value ~ pdq(3, 1, 0)) 2012 Jan  N(88, 14)  87.6
 3 ARIMA(value ~ pdq(3, 1, 0)) 2012 Feb  N(87, 19)  87.0
 4 ARIMA(value ~ pdq(3, 1, 0)) 2012 Mar  N(87, 30)  86.5
 5 ARIMA(value ~ pdq(3, 1, 0)) 2012 Apr  N(87, 36)  87.2
 6 ARIMA(value ~ pdq(3, 1, 0)) 2012 May  N(87, 44)  86.8
 7 ARIMA(value ~ pdq(3, 1, 0)) 2012 Jun  N(87, 54)  86.7
 8 ARIMA(value ~ pdq(3, 1, 0)) 2012 Jul  N(87, 62)  87.0
 9 ARIMA(value ~ pdq(3, 1, 0)) 2012 Aug  N(87, 70)  86.8
10 ARIMA(value ~ pdq(3, 1, 0)) 2012 Sep  N(87, 79)  86.8
# … with 14 more rows
…
elec_sales_split = rsample::initial_time_split(elec_sales, prop=0.9)

rsample::training(elec_sales_split)

# A tsibble: 171 x 2 [1M]
      index value
      <mth> <dbl>
 1 1996 Jan  85.0
 2 1996 Feb  81.9
 3 1996 Mar  78.4
 4 1996 Apr  79.0
 5 1996 May  79.7
 6 1996 Jun  76.1
 7 1996 Jul  81.4
 8 1996 Aug  79.3
 9 1996 Sep  78.1
10 1996 Oct  80.3
# … with 161 more rows
…
Complex seasonality

Half-hourly electricity demand - vic_elec

tsibbledata::vic_elec

# A tsibble: 52,608 x 5 [30m] <Australia/Melbourne>
   Time                Demand Temperature Date       Holiday
   <dttm>               <dbl>       <dbl> <date>     <lgl>  
 1 2012-01-01 00:00:00  4383.        21.4 2012-01-01 TRUE   
 2 2012-01-01 00:30:00  4263.        21.0 2012-01-01 TRUE   
 3 2012-01-01 01:00:00  4049.        20.7 2012-01-01 TRUE   
 4 2012-01-01 01:30:00  3878.        20.6 2012-01-01 TRUE   
 5 2012-01-01 02:00:00  4036.        20.4 2012-01-01 TRUE   
 6 2012-01-01 02:30:00  3866.        20.2 2012-01-01 TRUE   
 7 2012-01-01 03:00:00  3694.        20.1 2012-01-01 TRUE   
 8 2012-01-01 03:30:00  3562.        19.6 2012-01-01 TRUE   
 9 2012-01-01 04:00:00  3433.        19.1 2012-01-01 TRUE   
10 2012-01-01 04:30:00  3359.        19.0 2012-01-01 TRUE   
# … with 52,598 more rows
…
