GPs for GLMs + Spatial Data
…
Example data

nc  = read_sf("data/gis/nc_counties/", quiet=TRUE)
air = read_sf("data/gis/airports/", quiet=TRUE)
hwy = read_sf("data/gis/us_interstates/", quiet=TRUE)

nc

Simple feature collection with 100 features and 8 fields
Geometry type: MULTIPOLYGON
Dimension:     XY
Bounding box:  xmin: -84.32186 ymin: 33.84175 xmax: -75.46003 ymax: 36.58815
Geodetic CRS:  NAD83
# A tibble: 100 × 9
     AREA PERIM…¹ COUNT…² STATE COUNTY FIPS  STATE…³ SQUAR…⁴
    <dbl>   <dbl>   <dbl> <chr> <chr>  <chr> <chr>     <dbl>
 1 0.112     1.61    1994 NC    Ashe … 37009 37         429.
 2 0.0616    1.35    1996 NC    Alleg… 37005 37         236.
 3 0.140     1.77    1998 NC    Surry… 37171 37         539.
 4 0.0891    1.43    1999 NC    Gates… 37073 37         342.
 5 0.0687    4.43    2000 NC    Curri… 37053 37         264.
 6 0.119     1.40    2001 NC    Stoke… 37169 37         456.
 7 0.0626    2.11    2002 NC    Camde… 37029 37         241.
 8 0.115     1.46    2003 NC    Warre… 37185 37         444.
 9 0.143     2.40    2004 NC    North… 37131 37         551.
10 0.0925    1.81    2005 NC    Hertf… 37091 37         356.
# … with 90 more rows, 1 more variable:
#   geometry <MULTIPOLYGON [°]>, and abbreviated variable
#   names ¹​PERIMETER, ²​COUNTYP010, ³​STATE_FIPS, ⁴​SQUARE_MIL

air

Simple feature collection with 940 features and 16 fields
Geometry type: POINT
Dimension:     XY
Bounding box:  xmin: -176.646 ymin: 17.70156 xmax: -64.80172 ymax: 71.28545
Geodetic CRS:  NAD83
# A tibble: 940 × 17
   AIRPRTX…¹ FEATURE ICAO  IATA  AIRPT…² CITY  STATE STATE…³
       <dbl> <chr>   <chr> <chr> <chr>   <chr> <chr> <chr>  
 1         0 AIRPORT KGON  GON   GROTON… GROT… CT    09     
 2         3 AIRPORT K6S5  6S5   RAVALL… HAMI… MT    30     
 3         4 AIRPORT KMHV  MHV   MOJAVE… MOJA… CA    06     
 4         6 AIRPORT KSEE  SEE   GILLES… SAN … CA    06     
 5         7 AIRPORT KFPR  FPR   ST LUC… FORT… FL    12     
 6         8 AIRPORT KRYY  RYY   COBB C… ATLA… GA    13     
 7        10 AIRPORT KMKL  MKL   MC KEL… JACK… TN    47     
 8        11 AIRPORT KCCR  CCR   BUCHAN… CONC… CA    06     
 9        13 AIRPORT KJYO  JYO   LEESBU… LEES… VA    51     
10        15 AIRPORT KCAD  CAD   WEXFOR… CADI… MI    26     
# … with 930 more rows, 9 more variables: COUNTY <chr>,
#   FIPS <chr>, TOT_ENP <dbl>, LATITUDE <dbl>,
#   LONGITUDE <dbl>, ELEV <dbl>, ACT_DATE <chr>,
#   CNTL_TWR <chr>, geometry <POINT [°]>, and abbreviated
#   variable names ¹​AIRPRTX010, ²​AIRPT_NAME, ³​STATE_FIPS

hwy

Simple feature collection with 233 features and 3 fields
Geometry type: MULTILINESTRING
Dimension:     XY
Bounding box:  xmin: -7472582 ymin: 2911107 xmax: 2443707 ymax: 8208428
Projected CRS: NAD83 / UTM zone 15N
# A tibble: 233 × 4
   ROUTE_NUM DIST_MILES DIST_KM                     geometry
   <chr>          <dbl>   <dbl>        <MULTILINESTRING [m]>
 1 I10          2449.   3941.   ((-1881200 4072307, -187992…
 2 I105           20.8    33.4  ((-1910156 5339585, -191013…
 3 I110           41.4    66.6  ((1054139 3388879, 1054287 …
 4 I115            1.58    2.55 ((-1013796 5284243, -101313…
 5 I12            85.3   137.   ((680741.7 3366581, 682709.…
 6 I124            1.73    2.79 ((1201467 3906285, 1201643 …
 7 I126            3.56    5.72 ((1601502 3829718, 1602136 …
 8 I129            3.1     4.99 ((217446 4705389, 217835.1 …
 9 I135           96.3   155.   ((96922.97 4313125, 96561.8…
10 I15          1436.   2311    ((-882875.7 5602902, -88299…
# … with 223 more rows
…
