Covariance Functions
…
From last time

( temp = readRDS("data/avg_temp_df.rds") %>%
    slice(1:(52*3)) %>%
    mutate(week = as.numeric(date - date[1])/7) )

# A tibble: 156 × 3
   date       avg_temp  week
   <date>        <dbl> <dbl>
 1 2012-10-31     45.6     0
 2 2012-11-07     39.3     1
 3 2012-11-14     49.7     2
 4 2012-11-21     49.5     3
 5 2012-11-28     45.5     4
 6 2012-12-05     57.7     5
 7 2012-12-12     56.1     6
 8 2012-12-19     54.0     7
 9 2012-12-26     50.7     8
10 2013-01-02     45.6     9
# … with 146 more rows
…
