Spatial Data and Cartography (Part 2)
…
Dr. Colin Rundel 

Plotting

Example Data - NC SIDS

( nc = read_sf(system.file("shape/nc.shp", package="sf"), quiet = TRUE) |> 
    select(-(AREA:CNTY_ID), -(FIPS:CRESS_ID)))

Simple feature collection with 100 features and 7 fields
Geometry type: MULTIPOLYGON
Dimension:     XY
Bounding box:  xmin: -84.32385 ymin: 33.88199 xmax: -75.45698 ymax: 36.58965
Geodetic CRS:  NAD27
# A tibble: 100 × 8
   NAME        BIR74 SID74 NWBIR74 BIR79 SID79 NWBIR79
   <chr>       <dbl> <dbl>   <dbl> <dbl> <dbl>   <dbl>
 1 Ashe         1091     1      10  1364     0      19
 2 Alleghany     487     0      10   542     3      12
 3 Surry        3188     5     208  3616     6     260
 4 Currituck     508     1     123   830     2     145
 5 Northampton  1421     9    1066  1606     3    1197
 6 Hertford     1452     7     954  1838     5    1237
 7 Camden        286     0     115   350     2     139
 8 Gates         420     0     254   594     2     371
 9 Warren        968     4     748  1190     2     844
10 Stokes       1612     1     160  2038     5     176
# … with 90 more rows, and 1 more variable:
#   geometry <MULTIPOLYGON [°]>
…
Example Data - Meuse

data(meuse, meuse.riv, package="sp")
(meuse = st_as_sf(meuse, coords=c("x", "y"), crs=28992) |>
  as_tibble() |> st_as_sf())

Simple feature collection with 155 features and 12 fields
Geometry type: POINT
Dimension:     XY
Bounding box:  xmin: 178605 ymin: 329714 xmax: 181390 ymax: 333611
Projected CRS: Amersfoort / RD New
# A tibble: 155 × 13
   cadmium copper  lead  zinc  elev    dist    om ffreq
     <dbl>  <dbl> <dbl> <dbl> <dbl>   <dbl> <dbl> <fct>
 1    11.7     85   299  1022  7.91 0.00136  13.6 1    
 2     8.6     81   277  1141  6.98 0.0122   14   1    
 3     6.5     68   199   640  7.8  0.103    13   1    
 4     2.6     81   116   257  7.66 0.190     8   1    
 5     2.8     48   117   269  7.48 0.277     8.7 1    
 6     3       61   137   281  7.79 0.364     7.8 1    
 7     3.2     31   132   346  8.22 0.190     9.2 1    
 8     2.8     29   150   406  8.49 0.0922    9.5 1    
 9     2.4     37   133   347  8.67 0.185    10.6 1    
10     1.6     24    80   183  9.05 0.310     6.3 1    
# … with 145 more rows, and 5 more variables: soil <fct>,
#   lime <fct>, landuse <fct>, dist.m <dbl>,
#   geometry <POINT [m]>
…
Geometry Manipulation

Casting

(nc_pts = st_cast(nc, "MULTIPOINT"))

Simple feature collection with 100 features and 7 fields
Geometry type: MULTIPOINT
Dimension:     XY
Bounding box:  xmin: -84.32385 ymin: 33.88199 xmax: -75.45698 ymax: 36.58965
Geodetic CRS:  NAD27
# A tibble: 100 × 8
   NAME        BIR74 SID74 NWBIR74 BIR79 SID79 NWBIR79
   <chr>       <dbl> <dbl>   <dbl> <dbl> <dbl>   <dbl>
 1 Ashe         1091     1      10  1364     0      19
 2 Alleghany     487     0      10   542     3      12
 3 Surry        3188     5     208  3616     6     260
 4 Currituck     508     1     123   830     2     145
 5 Northampton  1421     9    1066  1606     3    1197
 6 Hertford     1452     7     954  1838     5    1237
 7 Camden        286     0     115   350     2     139
 8 Gates         420     0     254   594     2     371
 9 Warren        968     4     748  1190     2     844
10 Stokes       1612     1     160  2038     5     176
# … with 90 more rows, and 1 more variable:
#   geometry <MULTIPOINT [°]>
…
Casting - POINT

st_cast(nc, "POINT")

Simple feature collection with 2529 features and 7 fields
Geometry type: POINT
Dimension:     XY
Bounding box:  xmin: -84.32385 ymin: 33.88199 xmax: -75.45698 ymax: 36.58965
Geodetic CRS:  NAD27
# A tibble: 2,529 × 8
   NAME  BIR74 SID74 NWBIR74 BIR79 SID79 NWBIR79
   <chr> <dbl> <dbl>   <dbl> <dbl> <dbl>   <dbl>
 1 Ashe   1091     1      10  1364     0      19
 2 Ashe   1091     1      10  1364     0      19
 3 Ashe   1091     1      10  1364     0      19
 4 Ashe   1091     1      10  1364     0      19
 5 Ashe   1091     1      10  1364     0      19
 6 Ashe   1091     1      10  1364     0      19
 7 Ashe   1091     1      10  1364     0      19
 8 Ashe   1091     1      10  1364     0      19
 9 Ashe   1091     1      10  1364     0      19
10 Ashe   1091     1      10  1364     0      19
# … with 2,519 more rows, and 1 more variable:
#   geometry <POINT [°]>
…
Casting - LINESTRING

st_cast(nc, "MULTILINESTRING")

Simple feature collection with 100 features and 7 fields
Geometry type: MULTILINESTRING
Dimension:     XY
Bounding box:  xmin: -84.32385 ymin: 33.88199 xmax: -75.45698 ymax: 36.58965
Geodetic CRS:  NAD27
# A tibble: 100 × 8
   NAME        BIR74 SID74 NWBIR74 BIR79 SID79 NWBIR79
   <chr>       <dbl> <dbl>   <dbl> <dbl> <dbl>   <dbl>
 1 Ashe         1091     1      10  1364     0      19
 2 Alleghany     487     0      10   542     3      12
 3 Surry        3188     5     208  3616     6     260
 4 Currituck     508     1     123   830     2     145
 5 Northampton  1421     9    1066  1606     3    1197
 6 Hertford     1452     7     954  1838     5    1237
 7 Camden        286     0     115   350     2     139
 8 Gates         420     0     254   594     2     371
 9 Warren        968     4     748  1190     2     844
10 Stokes       1612     1     160  2038     5     176
# … with 90 more rows, and 1 more variable:
#   geometry <MULTILINESTRING [°]>
…
More Grouping

( nc_cut = nc |>
   mutate(X = st_centroid(nc) |> st_coordinates() |> (\(x) x[,1])()) |>
   mutate(region = cut(X, breaks = 5)) )

Simple feature collection with 100 features and 9 fields
Geometry type: MULTIPOLYGON
Dimension:     XY
Bounding box:  xmin: -84.32385 ymin: 33.88199 xmax: -75.45698 ymax: 36.58965
Geodetic CRS:  NAD27
# A tibble: 100 × 10
   NAME        BIR74 SID74 NWBIR74 BIR79 SID79 NWBIR79
 * <chr>       <dbl> <dbl>   <dbl> <dbl> <dbl>   <dbl>
 1 Ashe         1091     1      10  1364     0      19
 2 Alleghany     487     0      10   542     3      12
 3 Surry        3188     5     208  3616     6     260
 4 Currituck     508     1     123   830     2     145
 5 Northampton  1421     9    1066  1606     3    1197
 6 Hertford     1452     7     954  1838     5    1237
 7 Camden        286     0     115   350     2     139
 8 Gates         420     0     254   594     2     371
 9 Warren        968     4     748  1190     2     844
10 Stokes       1612     1     160  2038     5     176
# … with 90 more rows, and 3 more variables:
#   geometry <MULTIPOLYGON [°]>, X <dbl>, region <fct>
…
