Spatio-temporal Models
…
  Spatio-temporal Models

  Lecture 24

Dr. Colin Rundel 

Spatial Models with
AR time dependence

Example - Weather station data

NETemp.dat - Monthly temperature data (Celsius) recorded across the Northeastern US starting in January 2000.

# A tibble: 34 × 27
       x     y  elev    t_1   t_2    t_3   t_4   t_5   t_6   t_7   t_8
   <dbl> <dbl> <int>  <dbl> <dbl>  <dbl> <dbl> <dbl> <dbl> <dbl> <dbl>
 1  6.09  3.20   102  -6.39 -3.61  3.72   6.78 12.6   18.4  20    20.1
 2  6.25  3.26     1  -6.28 -4.11  2.61   6.56 11.4   16.8  18.4  18.7
 3  6.16  3.48   157 -11.1  -9.44 -0.389  3.94  9.89  15.4  17.5  17.4
 4  6.12  3.53   176 -11.6  -9.72 -1.17   2.89  9.67  14.8  17.4  16.9
 5  6.00  3.28   400 -12.6  -9.06 -1.61   2.56  8.56  14.3  15.9  15.8
 6  6.05  3.23   133  -9.11 -6.39  1.22   4.94 10.9   15.9  17.3  17.6
 7  6.10  3.18    56  -7.94 -6.06  2.06   5.56 11.1   17    18.6  18.8
 8  6.07  3.14    59  -6.56 -3.5   3.17   6.17 11.5   17.4  19.1  19.4
 9  6.17  3.46   160  -9.94 -8.94 -0.278  3.56  9.61  15.3  17.7  17.3
10  6.01  3.33   360 -12.3  -9.44 -1.5    2.94  9     14.5  17    16.9
# … with 24 more rows, and 16 more variables: t_9 <dbl>, t_10 <dbl>,
#   t_11 <dbl>, t_12 <dbl>, t_13 <dbl>, t_14 <dbl>, t_15 <dbl>,
#   t_16 <dbl>, t_17 <dbl>, t_18 <dbl>, t_19 <dbl>, t_20 <dbl>,
#   t_21 <dbl>, t_22 <dbl>, t_23 <dbl>, t_24 <dbl>
…
Out-of-sample validation

# A tibble: 34 × 29
       x     y  elev type  station    t_1  t_10   t_11   t_12   t_13
   <dbl> <dbl> <int> <chr>   <int>  <dbl> <dbl>  <dbl>  <dbl>  <dbl>
 1  6.09  3.20   102 test        1  NA    NA    NA      NA     NA   
 2  6.25  3.26     1 train       2  -6.28  8.89  3.89   -4.22  -7.11
 3  6.16  3.48   157 train       3 -11.1   6.44  1.94   -8.72 -11.6 
 4  6.12  3.53   176 train       4 -11.6   5.94  1.67   -9.17 -11.8 
 5  6.00  3.28   400 train       5 -12.6   5.67  0.278 -10.7  -11.9 
 6  6.05  3.23   133 train       6  -9.11  7.56  2.44   -7.11  -9.44
 7  6.10  3.18    56 test        7  NA    NA    NA      NA     NA   
 8  6.07  3.14    59 train       8  -6.56  9.61  4.17   -4.89  -6.06
 9  6.17  3.46   160 train       9  -9.94  6.67  1.72   -8.44 -12.1 
10  6.01  3.33   360 train      10 -12.3   6.39  0.944 -10.6  -11.6 
# … with 24 more rows, and 19 more variables: t_14 <dbl>, t_15 <dbl>,
#   t_16 <dbl>, t_17 <dbl>, t_18 <dbl>, t_19 <dbl>, t_2 <dbl>,
#   t_20 <dbl>, t_21 <dbl>, t_22 <dbl>, t_23 <dbl>, t_24 <dbl>,
#   t_3 <dbl>, t_4 <dbl>, t_5 <dbl>, t_6 <dbl>, t_7 <dbl>, t_8 <dbl>,
#   t_9 <dbl>
…
