Linear Models
…
d = tibble(
  X1 = rt(n,df=5),
  X2 = rt(n,df=5),
  X3 = rt(n,df=5)
) |>
  mutate(
    Y = beta[1] + beta[2]*X1 + beta[3]*X2 + beta[4]*X3 + eps
  )

Model Matrix

X = model.matrix(~X1+X2+X3, d) 
as_tibble(X)

# A tibble: 100 × 4
   `(Intercept)`      X1       X2      X3
           <dbl>   <dbl>    <dbl>   <dbl>
 1             1  0.557   0.897   -1.46  
 2             1  0.758   0.375   -0.945 
 3             1  0.273   3.81    -0.675 
 4             1  1.41   -0.0745   0.514 
 5             1  1.01    0.623   -1.99  
 6             1  0.942  -0.00618  0.700 
 7             1  1.66    1.57     0.0478
 8             1 -1.09    0.766    1.33  
 9             1 -0.296   1.40    -0.0914
10             1 -0.0604  0.396   -0.0527
# ℹ 90 more rows
…
                  prior     class coef group resp dpar nlpar lb ub       source
                 (flat)         b                                       default
                 (flat)         b   X1                             (vectorized)
                 (flat)         b   X2                             (vectorized)
                 (flat)         b   X3                             (vectorized)
 student_t(3, 1.1, 3.1) Intercept                                       default
   student_t(3, 0, 3.1)     sigma                             0         default

tidybayes

(post = b |>
  tidybayes::gather_draws(b_Intercept, b_X1, b_X2, b_X3, sigma)
)

# A tibble: 10,000 × 5
# Groups:   .variable [5]
   .chain .iteration .draw .variable   .value
    <int>      <int> <int> <chr>        <dbl>
 1      1          1     1 b_Intercept  0.682
 2      1          2     2 b_Intercept  0.575
 3      1          3     3 b_Intercept  0.535
 4      1          4     4 b_Intercept  0.545
 5      1          5     5 b_Intercept  0.551
 6      1          6     6 b_Intercept  0.554
 7      1          7     7 b_Intercept  0.516
 8      1          8     8 b_Intercept  0.582
 9      1          9     9 b_Intercept  0.575
10      1         10    10 b_Intercept  0.422
# ℹ 9,990 more rows
…
